Data wrangling with dplyr, part 1
…
Final exercise: Try to replicate an output.

Time: Until end of the session.
Copy and paste the following code to obtain the database economics data.

library(ggplot2)
economics_data <- economics %>% 
    # get the year information
    mutate(year = as.numeric(substr(date, 0, 4))) %>% 
    as_tibble()
economics_data
#> # A tibble: 574 x 7
#>    date         pce    pop psavert uempmed unemploy  year
#>    <date>     <dbl>  <dbl>   <dbl>   <dbl>    <dbl> <dbl>
#>  1 1967-07-01  507. 198712    12.6     4.5     2944  1967
#>  2 1967-08-01  510. 198911    12.6     4.7     2945  1967
#>  3 1967-09-01  516. 199113    11.9     4.6     2958  1967
#>  4 1967-10-01  512. 199311    12.9     4.9     3143  1967
#>  5 1967-11-01  517. 199498    12.8     4.7     3066  1967
#>  6 1967-12-01  525. 199657    11.8     4.8     3018  1967
#>  7 1968-01-01  531. 199808    11.7     5.1     2878  1968
#>  8 1968-02-01  534. 199920    12.3     4.5     3001  1968
#>  9 1968-03-01  544. 200056    11.7     4.1     2877  1968
#> 10 1968-04-01  544  200208    12.3     4.6     2709  1968
#> # … with 564 more rows
…
